test_run_dir/SpiSlave_should_receive_a_byte_MSBfirst_with_width1/SpiSlave.vcd
$date
2026-04-12T18:55+0000
$end
$version
0.2
$end
$comment

$end
$timescale 1ns  $end
$scope module SpiSlave $end
 $var wire 8 ! txShift $end
 $var wire 8 " io_rxData_bits $end
 $var wire 3 # sclkSync $end
 $var wire 8 $ rxReg $end
 $var wire 1 % io_lsbFirst $end
 $var wire 1 & io_rxData_valid $end
 $var wire 1 ' io_spi_cs $end
 $var wire 1 ( io_spi_miso $end
 $var wire 1 ) io_spi_mosi $end
 $var wire 4 * bitCnt $end
 $var wire 1 + io_txData_ready $end
 $var wire 1 , clock $end
 $var wire 1 - reset $end
 $var wire 1 . io_txData_valid $end
 $var wire 8 / io_txData_bits $end
 $var wire 1 0 sclkRise $end
 $var wire 8 1 rxShift $end
 $var wire 1 2 csStart $end
 $var wire 1 3 csSync_1 $end
 $var wire 1 4 csSync_0 $end
 $var wire 1 5 rxValid $end
 $var wire 4 6 nextBitCnt $end
 $var wire 1 7 sclkFall $end
 $var wire 1 8 io_spi_sclk $end
 $var wire 1 9 io_rxData_ready $end
 $var wire 1 : csActivePrev $end
$upscope $end
$enddefinitions $end
$dumpvars
00
02
03
04
05
07
08
09
b00000000 "
0:
b00000000 $
b00000000 !
b00000000 /
b00000000 1
b000 #
b0000 *
0%
0&
0'
0(
0)
0+
0,
0-
b0000 6
0.
$end
#0
b0001 6
1-
#1
1,
#6
1'
0,
0-
#11
1,
#16
0,
#21
1,
#26
0'
0,
#31
14
1,
#36
0,
#41
12
13
1,
#46
0,
#51
02
1:
1,
#56
0,
#61
1,
#66
1)
0,
#71
1,
#76
0,
#81
1,
#86
0,
#91
1,
#96
0,
#101
1,
#106
18
0,
#111
b001 #
1,
#116
0,
#121
10
b011 #
1,
#126
0,
#131
00
b00000001 1
b111 #
b0010 6
b0001 *
1,
#136
0,
#141
1,
#146
08
0)
0,
#151
b110 #
1,
#156
0,
#161
b100 #
17
1,
#166
0,
#171
b000 #
07
1,
#176
0,
#181
1,
#186
18
0,
#191
b001 #
1,
#196
0,
#201
10
b011 #
1,
#206
0,
#211
00
b00000010 1
b111 #
b0011 6
b0010 *
1,
#216
0,
#221
1,
#226
08
1)
0,
#231
b110 #
1,
#236
0,
#241
b100 #
17
1,
#246
0,
#251
b000 #
07
1,
#256
0,
#261
1,
#266
18
0,
#271
b001 #
1,
#276
0,
#281
10
b011 #
1,
#286
0,
#291
00
b00000101 1
b111 #
b0100 6
b0011 *
1,
#296
0,
#301
1,
#306
08
0)
0,
#311
b110 #
1,
#316
0,
#321
b100 #
17
1,
#326
0,
#331
b000 #
07
1,
#336
0,
#341
1,
#346
18
0,
#351
b001 #
1,
#356
0,
#361
10
b011 #
1,
#366
0,
#371
00
b00001010 1
b111 #
b0101 6
b0100 *
1,
#376
0,
#381
1,
#386
08
0,
#391
b110 #
1,
#396
0,
#401
b100 #
17
1,
#406
0,
#411
b000 #
07
1,
#416
0,
#421
1,
#426
18
0,
#431
b001 #
1,
#436
0,
#441
10
b011 #
1,
#446
0,
#451
00
b00010100 1
b111 #
b0110 6
b0101 *
1,
#456
0,
#461
1,
#466
08
1)
0,
#471
b110 #
1,
#476
0,
#481
b100 #
17
1,
#486
0,
#491
b000 #
07
1,
#496
0,
#501
1,
#506
18
0,
#511
b001 #
1,
#516
0,
#521
10
b011 #
1,
#526
0,
#531
00
b00101001 1
b111 #
b0111 6
b0110 *
1,
#536
0,
#541
1,
#546
08
0)
0,
#551
b110 #
1,
#556
0,
#561
b100 #
17
1,
#566
0,
#571
b000 #
07
1,
#576
0,
#581
1,
#586
18
0,
#591
b001 #
1,
#596
0,
#601
10
b011 #
1,
#606
0,
#611
00
b01010010 1
b111 #
b1000 6
b0111 *
1,
#616
0,
#621
1,
#626
08
1)
0,
#631
b110 #
1,
#636
0,
#641
b100 #
17
1,
#646
0,
#651
b000 #
07
1,
#656
0,
#661
1,
#666
18
0,
#671
b001 #
1,
#676
0,
#681
10
b011 #
1,
#686
0,
#691
00
b10100101 1
b10100101 "
b111 #
b10100101 $
15
1&
b0001 6
b0000 *
1,
#696
0,
#701
1,
#706
08
0,
#711
b110 #
1,
#716
0,
#721
b100 #
17
1,
#726
0,
#731
b000 #
07
1,
#736
0,
#741
1,
#746
19
0,
#751
05
0&
1,
#756
1'
0,
#761
04
1,
#766
0,
#771
03
1,
#776
0,
#781
0:
1,
